15
1023 13
5226 3100 7244 7389 5891 2347 1697 6828 847 6805 3996 2490 3824 5406 5467 1777 6432 4811 6804 7653 2727 3420 987 3612 7706 3981 4725 1913 5651 7860 6278 7228 7311 1874 2969 5201 4220 4665 380 1419 3469 4375 260 7293 6133 2078 1069 916 6889 4225 4920 5967 3996 5906 1578 3701 6238 2655 1965 240 6866 243 7468 6176 6468 2436 7728 7039 7100 4459 457 6920 5186 5069 6212 3318 7146 3633 585 2386 4209 5504 353 204 7761 6282 256 5998 5288 6572 2590 4153 3166 6409 6680 1633 844 2759 672 4295 7218 5480 7566 755 2548 5778 4072 6046 5762 4656 431 1970 6511 5135 6525 6271 7769 6780 620 5056 5351 3209 5561 517 1617 4240 6501 6812 6999 7172 3106 2568 4652 2672 3322 3551 4801 3745 1596 2562 4752 2027 883 3262 3513 7407 1532 7633 2538 2151 4689 4240 1712 6601 4756 3328 2840 7609 2140 6190 6780 1597 5109 7783 620 4782 3334 1772 4878 1281 685 1629 7659 1567 1242 3172 5325 7125 2804 7862 5628 3844 4102 7339 2444 5209 7018 1636 4817 5509 4177 7949 7106 1286 7731 4077 6067 7416 5849 2945 697 6533 925 355 4452 6519 7878 1776 5643 7034 1638 3270 2877 2091 6960 5321 7299 5978 3308 468 3486 7484 416 6943 769 4498 3020 3188 266 5220 2484 962 104 7760 5668 4555 6278 5546 2683 3921 4579 672 3542 3807 2762 2502 5479 6412 4831 786 3231 4668 270 7998 3611 1038 4496 2982 577 4761 4553 7412 2074 4656 7172 7741 5563 5449 1638 245 5721 2568 916 1263 6375 29 116 3853 2792 4946 4639 6023 5965 4908 6020 5927 2297 6867 908 7226 7979 1812 6637 2052 6468 5808 6145 382 7609 4134 626 5329 6702 5893 6591 1428 2273 6706 5280 5064 3 6270 7438 5968 7529 1810 3894 6178 676 1154 5403 655 2965 391 7058 5784 6199 1554 2517 5807 5688 3142 7487 741 5386 6078 2168 4010 1135 7447 1074 5490 2069 4863 3457 1597 6672 3702 7774 7348 1207 1528 4354 524 1919 3411 2659 117 4965 5176 2275 2652 4669 6113 3392 2055 4190 5559 6064 1677 1357 3489 7166 3425 352 6974 1374 7023 7027 1147 2722 234 2675 7075 5109 4593 2486 7767 1061 7450 4942 7687 6453 1611 5799 6196 17 6341 106 6080 4369 1462 5921 3534 1239 6272 6859 2612 1646 5885 110 4368 2470 7136 3442 7578 3728 5927 7345 1140 1728 638 5178 180 2248 7329 6375 2264 2021 6480 4696 6389 4294 2616 6274 1884 5239 5132 847 6884 7368 956 3251 6190 92 3045 5767 171 971 1463 5663 7051 2101 2840 3582 4348 6520 6309 2964 540 4788 7659 6928 5433 2274 5201 7316 7512 6684 4514 2747 6052 5470 2350 4241 1913 5394 6359 6435 2716 7822 4097 1766 6274 3289 5348 2621 1808 3656 5584 2348 4795 1594 5627 6580 219 2828 2247 4082 5863 6761 6829 266 4230 1178 858 2494 6571 7217 928 1286 3390 1377 7404 1663 4665 4751 635 2824 4758 2571 1523 1552 4164 7150 131 4383 6329 2378 4816 4191 5490 3644 4457 6071 1173 5314 564 4095 882 5843 1733 4271 7219 1136 2285 235 2238 2920 7411 6995 5490 933 4898 6005 4434 1381 2387 7114 110 7203 3305 5599 7198 4113 3669 371 5778 584 4465 3012 6426 2549 3634 1997 3684 5919 6583 2273 838 5993 1267 2679 3278 2517 683 7711 249 7422 6825 358 2976 6481 2308 2173 6945 2328 6895 4722 2911 7712 7733 5688 2260 7719 7684 2296 5637 6267 4568 2826 4259 2187 5504 7536 4703 2538 3599 1303 1959 2423 1660 4934 5255 319 3459 4199 2646 6705 920 5556 6416 5005 7595 5028 4723 7279 7323 6711 1897 3890 1536 2507 2428 3391 2043 3482 5928 1993 4784 4239 767 2795 1172 6021 3113 982 2219 2110 7687 7490 4017 6102 846 3612 7481 5568 2890 6803 630 4786 7045 2165 7292 1472 1907 5686 1306 4187 4030 6089 425 4796 884 5948 2816 348 6930 5034 2458 6616 4524 6474 1069 1721 2085 550 7289 1326 3704 4270 2463 2748 2787 6107 572 4693 144 1877 879 4174 4317 1303 969 5200 7251 3785 1900 2532 5170 4357 1147 6045 7182 6567 7766 5619 7116 3406 6944 7172 7675 5759 1919 2461 3865 6842 3506 4008 5070 736 181 1387 2039 5502 2938 5641 5638 4837 172 2807 5545 5670 852 1079 4236 4969 6697 7704 374 1992 6875 4400 7750 5145 3213 3614 339 6718 3974 5408 7453 506 6794 5843 6007 1732 7835 3644 6568 6 2803 465 2027 6 1543 2615 4974 239 2318 1699 2230 5544 6098 6332 7040 5662 6297 7378 4379 2270 4786 184 7128 7931 6026 1486 1662 5861 5130 4582 2218 4284 5046 4245 4289 2940 6859 1262 7530 5528 7312 6111 7423 1761 4442 6462 7423 2739 2192 3801 1360 3329 3984 487 3259 6362 1973 4921 574 3454 5854 2791 7737 2899 3387 4025 2190 6597 1638 1719 4124 5301 7829 3546 7061 623 6360 6483 3361 4903 6636 1072 231 6971 1559 3489 5332 7883 4761 5905 3336 2614 5048 7424 1864 434 7800 4053 3383 5789 5771 7506 3089 1952 7404 2149 2574 2115 4984 2286 7017 3619 3357 7247 2589 1267 2735 4273 1149 7496 6529 836 6461 3576 259 325 362 4410 4377 3744 2198 6500 7601 1638 4803 7004 139 7376 5470 5122 6013 4486 740 1369 84 3328 2636 7171 7600 3784 6666 2481 972 1478 6056 5582 1802 2769 1992 6179 2864 541 1030 2465 2179 5832 5820 2317 1559 3290 7438 7571 4127 4529 939 4211 4208 7926 3381 160 62 6398 2640 1033 7875 695 6614 1677 7816 605 4207 2679 5498 1588 5143 7676 3771 2963 1992 5329 2604 5781 4899 6730 2309 2189 7292 6516 2115 2672 6675 2176 1069 1314 7560 5296 6361 6173 3324 6176 3130 7530 854 627 5469 2349 4654 1239 1663 6645 6567 4266 777 7817 7347 3085 2005 6639 5952 471 5662 979
790 10
2292 6557 378 5004 1082 3701 3179 563 7582 385 5541 5050 2733 2194 6288 4395 5190 1206 5012 5966 1022 710 5402 7378 7348 3353 4201 5010 4331 3198 92 2975 6107 469 7978 3540 4169 7509 4102 102 7893 1642 5151 6977 187 3438 3371 5376 995 4734 3341 2016 5443 742 5745 4791 446 1945 6152 1129 5143 2595 455 7601 3063 4784 7492 3583 4292 3593 3684 536 1586 5186 7512 1772 623 2882 7147 5969 3967 6839 7984 1410 3932 5728 2552 729 7673 5055 6209 1167 7649 6663 5119 2711 3447 4610 2645 4090 4554 2680 4626 6139 7865 4137 4262 4839 3371 7760 2807 7337 2950 2790 5098 6881 4869 7649 3961 893 4703 2170 2059 4351 5184 3529 3413 4982 138 2409 1072 1043 5088 2049 3533 4952 6185 7794 1790 5907 3905 4596 1596 6854 3737 6693 2086 4958 2694 2399 5850 7396 4568 4261 99 1751 7789 7863 6733 4279 2272 4156 5321 7359 6204 854 663 740 4999 2452 2999 904 3400 4594 4109 3488 3286 2547 445 5979 4945 6295 1727 5864 6907 1825 7614 6695 1687 2698 7325 310 3205 4646 7669 5760 1851 331 6500 6849 7134 1498 4104 6885 6091 4565 6725 5728 3463 7169 3707 407 1815 1785 6270 721 3609 2235 3768 1647 1285 3092 1957 4489 4089 5977 2249 2291 2659 5100 1140 6144 2949 1595 5029 5391 2511 105 3118 5973 7273 3176 2731 5440 4960 5352 2512 4920 7587 2631 6567 871 5723 4875 1711 6163 7203 3959 454 1861 5410 5945 4356 358 3891 5736 5748 2754 5840 866 726 1465 393 7809 6904 5353 5160 5767 6624 4746 398 1542 1968 2472 6416 3679 634 1970 3989 5439 182 1399 7735 4538 6108 3626 2273 3856 6379 113 1073 3456 5929 5817 7616 4832 3169 4776 6950 1793 5873 7347 3334 7841 1818 6102 7871 6804 71 211 594 4605 5961 329 1142 4069 3954 7766 4276 6684 4230 1700 6491 2158 7516 6107 3341 2685 2882 2291 829 754 1637 514 4946 7807 6615 1168 2962 3038 1379 3555 3994 7339 3883 5135 3407 4188 1252 4034 2871 5482 5733 1362 7639 5249 7468 7332 7933 6701 1622 5113 7454 7610 5626 752 7416 593 1919 2377 7982 3297 2284 3975 6988 6166 5461 6746 2354 6712 2780 1576 545 512 2937 4536 5760 6756 3867 2044 5456 1840 3508 1262 1449 1134 2013 865 6078 283 7593 2411 7932 1876 2737 6919 4394 197 5664 3099 3260 443 4674 157 5307 7611 4692 3066 2718 4910 1462 174 6749 4969 5787 197 2454 7799 5413 531 4433 5006 7293 4364 3233 2029 3282 7626 2225 5298 2724 1837 2092 3750 1993 7398 7712 6684 6816 2429 3593 277 6954 2341 1597 4740 6889 4051 890 4302 933 5323 5659 226 6038 891 2254 5672 4869 831 2969 3944 7019 5060 7693 1011 810 7404 4046 7625 6185 3990 4253 5138 2682 5849 6230 1570 6251 7119 2223 7184 793 7881 3761 6831 5124 2366 4502 1992 7548 3822 2287 6566 5233 6332 3928 6042 5735 4325 5666 271 4666 6270 1761 7347 4119 7990 5269 6721 3460 3843 2256 605 3724 6016 3787 847 4734 4640 7190 4281 461 1476 7199 5693 7807 7478 3735 1894 3803 5752 6516 468 4022 276 4167 4492 265 5787 3212 77 1629 5468 681 5352 7835 819 2550 4568 5458 1739 5201 2270 3215 4399 4314 7373 228 4400 5618 4030 2152 4134 850 2525 4409 5016 7016 1026 2802 2227 1102 4430 4046 6134 6134 3881 6952 683 448 761 2422 2000 3030 1988 6398 3695 5712 6626 95 3330 7007 2246 7463 7856 4770 3871 1223 137 1248 4024 6715 6701 4806 2761 4834 7291 6641 137 7973 3440 5249 6746 5440 4630 5085 189 325 2797 3166 419 2478 2173 7016 1940 6380 3785 2162 7603 273 7762 7978 6987 6462 1135 1747 3296 425 387 7784 4750 3827 5033 7847 1266 6014 4932 5806 6338 4080 972 6756 6557 3144 5771 4848 5875 5907 3361 5477 6179 3122 1807 5166 5936 2941 3264 5583 7718 3651 5366 4467 3829 6750 4313 1446 4764 5596 7251 7453 6027 222 6209 935 7717 331 2134 5592 2590 1847 7420 768 1320 1226 2285 7255 519 5549 4837 236 5551 2203 4702 5731 5304 5366 3528 2067 7314 7130 1520 1692 7352 4080 2627 3420 762 1112 5363 3351 2958 4783 4119 4278 2360 2755 3532 2878 4655 369 3113 6557 6923 4166 4287 4226 5884 4166 2645 5197 3296 516 3240 6999 4595 5866 2418 5356 6978 4133 707 6287 5267 1177 2564 7626 283 6096 2504 1290 2816 1968 7846 1738 6134 485 5963 4017 4650
351 124
7945 1122 804 3295 2068 3022 5713 3776 6351 6197 834 4637 3463 2010 7201 3088 6644 1648 1943 7933 4463 3911 4131 6200 6396 4615 514 6764 5616 1121 4328 1913 6594 1483 5207 5014 4504 7271 789 7206 5467 1622 3843 929 7983 7395 369 6626 5394 2311 2911 1856 2573 7041 4407 968 7 4920 7731 1974 2392 410 3886 5338 1893 1093 2351 2748 363 3139 1954 2182 4760 2148 3110 4742 5894 3478 7719 3287 5789 6981 1494 4713 6021 5900 5681 2379 7171 5411 4353 1563 2173 238 3252 4065 5682 5602 3164 2397 740 1469 4578 1851 7968 7687 2944 5861 7517 2662 5499 1657 1643 6992 6369 4015 4891 4049 2746 4062 5812 7098 1976 7984 3687 5227 400 5721 7180 7915 117 4271 5736 1046 6121 5703 732 1064 7916 4600 77 5414 6256 6071 4406 4625 6438 5648 5025 1183 6061 7188 4632 36 7171 4670 1614 3922 6742 5145 189 6858 1415 5924 7903 7535 3626 4987 4950 3541 5938 1379 5307 4194 7449 1712 5170 2238 7359 2194 7772 1772 1382 4403 6159 4904 5425 7773 5178 4166 4917 5366 7376 2684 7641 3630 2218 3266 4968 3520 3159 2906 4898 4817 7099 698 6528 620 7288 2238 2813 7059 4009 546 7814 2168 1802 5238 6292 6979 5755 7560 696 5130 2243 336 5112 813 7953 2079 684 7463 4984 5581 4279 434 2630 7158 1053 1917 5748 218 976 1756 5115 789 275 3268 2378 2918 6598 132 6830 7293 1614 1072 3980 6725 6236 285 5155 6919 7747 6491 851 378 3276 3481 7535 681 1749 5282 5250 7076 3390 2364 7864 16 1984 6593 2934 581 6725 1763 7874 4690 7186 205 7766 1774 489 1272 692 4588 7762 5895 4965 3038 5727 851 70 7475 6133 5319 6551 5874 4034 2766 5889 6017 1359 822 6598 4435 6936 2823 5476 6122 3027 5241 4247 7868 6512 4938 4455 2626 7184 5771 2015 4910 6621 2084 737 1105 3754 7287 6978 7787 6404 4867 2156 4114 2040 753 548 976 7927 2375 3449 2953 3967
975 451
2479 984 7978 1456 168 5748 3470 1429 4369 1905 2165 5473 5658 5803 803 5444 4207 5669 3951 320 4060 4703 5220 5035 4629 3946 4835 3934 7913 881 7457 6743 6217 7435 198 2736 5182 19 4164 5902 1923 6329 7727 7580 4131 529 1375 4689 2549 5326 1361 6608 6380 2932 7995 7361 6877 4829 7646 6789 2062 7102 5531 278 6536 2080 3013 70 2098 7176 5971 4020 1856 5697 7951 2339 2577 5678 3379 5125 7355 4739 3733 5734 4022 3727 1446 2899 4907 1091 6039 6968 193 7922 7245 3080 2001 6609 3149 451 2137 1120 822 3992 3168 773 2682 5745 2802 6061 7221 2156 7151 2953 4241 3173 3031 5687 2423 7938 6777 461 3257 3321 382 2502 6401 6735 5462 1549 7185 7598 7020 4358 7942 6540 1482 2623 636 4283 5035 7856 2790 538 7161 3383 3710 2191 1069 2484 6480 4197 2944 1737 3870 7678 590 2270 2764 6051 170 6300 5649 3542 2657 1942 2081 4139 916 7068 4773 5951 6923 7563 2840 2435 2945 2901 4626 365 5384 3105 4561 4679 1193 4782 4356 1782 3403 3471 4185 3573 1770 6185 3466 4427 126 1898 4917 1041 965 1689 3343 4239 1251 6182 6674 547 1082 7651 911 6465 2755 1824 3144 300 6605 3851 2081 2008 7322 6265 1932 1091 4449 5397 1869 926 7294 6785 1967 258 4826 5309 848 6076 3491 7521 6623 924 7171 7533 7389 6278 5708 6884 6577 4313 2734 5009 6320 6407 7626 251 3850 426 5647 5718 1352 1292 855 3318 5901 5680 4978 6748 107 4820 6269 3081 5744 1791 6966 1484 68 4673 4719 2996 985 7452 4357 3656 5859 3982 258 1708 4407 2256 3777 2110 3547 983 1779 1447 3014 6757 4547 3121 7928 7167 6201 2023 957 5166 7858 5377 6191 4576 4724 7175 4028 1080 7183 6238 5061 7440 4297 5820 1696 4425 7929 5242 5408 1708 3041 421 4816 7587 7893 1095 6753 6094 3118 4061 7611 2975 1437 5801 7551 2513 1328 7930 3592 510 2519 5005 7949 6815 7176 1644 7591 7104 3238 4998 5163 6278 1771 6330 5864 1663 7425 968 4108 6894 5028 71 1868 2817 5871 5770 5329 7198 5699 5272 4059 217 6628 4008 3383 5803 2003 2974 1259 5240 4323 2773 3517 6093 1103 5732 4108 4879 3051 215 3772 4431 4637 1991 3599 2508 7761 5279 6057 1811 2550 2116 6380 1178 2475 1762 6980 4477 1087 238 1717 5410 3011 1585 7854 465 7317 3961 1695 6719 528 5466 3149 5164 3808 6747 4023 7920 4025 2080 6083 6575 547 4462 4104 3021 2575 7435 7497 3662 4025 5565 1071 3387 7150 924 3851 2818 1237 1897 1536 6116 3714 4685 3279 7521 3431 7302 3793 3808 5733 1875 2382 6279 6336 2837 5651 910 2271 1499 923 2647 7064 6345 6033 6213 3621 6235 1030 4857 131 2565 2972 3844 7249 2602 7717 7032 6255 3509 2839 3987 5383 1572 6617 70 760 4267 5331 7382 5766 6254 2029 4829 4598 61 7393 218 6296 422 1426 2778 7338 749 6622 2939 3351 6338 1970 1605 6198 1160 1944 3580 7083 560 1 7842 1179 5331 7223 3296 3584 1251 4476 4534 5664 3868 1103 3959 641 2529 6736 4330 3277 1709 7268 2979 4398 5589 936 2595 6748 2879 2526 5830 7790 2526 2023 968 7857 1246 615 7792 6848 5090 4325 4511 5309 1780 4821 2301 660 7909 6631 288 1617 5898 3267 6015 3487 4202 4961 6586 7080 7487 768 3221 2012 2790 541 1868 387 1155 6012 3587 2597 6688 97 4257 467 4918 6558 1126 4826 1540 1414 2794 7437 1032 5160 7275 5233 2121 2213 664 1607 2980 3884 3618 2121 4424 1838 2508 1931 7849 6094 4527 6536 2542 783 3355 3811 3692 4480 4988 5231 2245 7782 1020 3276 4941 294 508 7061 2506 5523 5019 1837 1407 4989 3958 2182 6826 2817 4112 3026 5262 4990 5913 4155 2125 1267 7966 5816 2099 4953 3047 695 4734 418 3971 6027 711 830 5087 7569 6353 6458 1405 4111 3446 1714 2644 2271 882 3108 1648 6143 97 7560 2298 2221 5179 6615 4389 3629 3567 7435 4323 4653 7852 293 2679 4914 5475 4117 834 179 2574 6591 641 6019 304 3284 4641 1186 6391 6288 3680 6488 2200 2329 5060 3730 943 1448 7358 862 5234 32 5514 1437 4677 4544 2703 2151 660 3536 2329 7586 2126 2969 5604 2430 2604 6597 7967 995 4884 7998 3834 3435 2327 5245 7164 7621 3045 2873 482 278 2905 2347 6067 7581 6890 769 6083 7550 4304 4763 7135 2782 4083 1090 1563 6686 7686 1529 4032 922 5878 4217 4356 204 5814 7872 7825 858 7096 4658 1135 2000 7005 7201 5932 5894 4321 366 1795 4977 5128 5281 7758 5562 2723 1320 600 2408 7200 983 7681 5077 5200 4037 1633 3013 260 5809 3870 7355 2466 1356 5707 5822 4909 3638 3716 1229 356 1862 2557 1835 7143 2314 7397 1865 7985 7996 624 7184 978 305 613 2529 693 2245 1893 952 53 2114 4658 6870 3470 2364 4692 4730 2354 4759 2310 2709 6620 4867 4543 2114 7180 291 3978 7165 4638 954 2700 1968 1258 3312 4496 6302 5556 2741 3605 1960 4854 262 830 4675 6978 1873 1404 5683 6631 3714 4743 5250 580 5637 3716 4111 5928 7693 3275 2565 4998 2327 884 2607 5638 5380 908 7546 120 4512 1505 1325 1126 6686 6000 4455 558 7403 2137 7188 3116 3231 790 47 867 4505 4158 3146 549 3784 2063 5547 6110 2946 153 3748 4677 5413 7645 4796 6276 1149 6121 3753 7835 4120 207 4744 7874 6695 3932 7342 1925 4721 7388 7144 5577 3545 2289 6125 3681 4351 3671 1790 3649 176 1889 325 1940 1533
513 278
2682 3945 3968 6868 64 526 3611 4289 7221 3894 3630 5497 4966 3018 4640 2542 2914 3281 667 6594 7631 689 4736 7631 864 6624 7956 2803 157 1428 7370 7190 5372 3337 2409 1787 3862 2371 6075 7434 6265 6057 4931 3230 1074 1570 5772 339 1202 2790 3285 5185 3478 20 4815 694 6643 4770 7848 3151 2549 7217 6692 4272 2553 1100 2410 2767 7823 4837 2200 2439 2893 3482 5668 318 1404 7791 656 2605 6932 3940 7789 2410 3959 4604 7455 6954 5725 7302 6456 4626 6519 5148 897 5423 2599 3307 189 2421 4495 6741 4859 7387 6574 6879 7704 7977 3021 4711 2582 1953 5003 6722 714 5313 3325 168 618 5402 7469 7074 2027 5987 4221 7275 7762 6819 6933 4302 5592 3427 7394 2450 2813 5968 1328 6868 5944 701 7931 4877 2653 1285 3599 3366 6597 3275 7885 3567 676 7353 2640 7054 1692 3212 6329 1453 2030 1613 2106 7621 5040 1500 6423 4204 7467 4102 3072 1762 4802 7354 6639 3806 638 6589 7171 3586 1863 7055 7152 6891 2760 6143 2296 4451 1354 4976 2255 7736 6589 4360 7356 3628 5859 2130 7831 1677 6232 7254 3439 3033 2959 6429 6839 3596 5017 2361 3534 3231 5768 7037 6473 4879 5180 769 5681 2885 2096 7935 2620 684 646 6328 663 2857 457 4846 4533 6688 451 4323 6073 3410 2751 1263 3357 7767 7975 6890 7350 2094 2279 5822 6972 3810 2942 4652 6694 5038 938 1314 2073 1584 7641 2736 792 4449 3933 5324 7489 4383 5999 5561 7792 749 3175 7501 4868 7501 2742 4217 1595 5020 6390 566 829 5684 1570 7523 7073 6859 5188 1145 442 1180 232 5585 5628 4164 7261 5116 547 5259 7028 4690 6007 2202 4190 7226 1703 6932 7794 7649 3951 2536 214 1132 219 6135 5006 7291 4994 2193 435 1787 3372 667 7372 5351 1182 6632 2467 1728 242 1494 2770 2600 48 6959 1826 6102 2242 1619 5750 6193 4154 2315 3676 724 450 681 14 1795 7225 4801 3581 6948 1819 7304 4298 3000 2287 3116 1080 2528 4610 3849 5128 1009 7159 3305 7110 1401 1275 1211 3945 1781 3525 7620 2504 3974 4652 6870 2120 3876 3670 5701 2823 5488 5004 3472 4839 3643 6588 5918 6170 7549 6118 7649 557 5277 2953 4018 6677 4228 5228 2621 6008 5104 6592 4863 1078 3243 3732 3197 3470 7401 5249 2644 1240 6605 2467 6079 2247 1054 3996 416 4954 2114 4417 1862 3742 7369 5879 2418 7948 7458 1390 2307 4562 4333 7170 1991 3927 2901 1539 7396 6654 6788 6391 7893 1744 857 2323 3990 6263 6319 757 3216 4784 5173 5078 4877 894 7308 7294 5193 3118 5035 7500 7679 1367 3021 6021 1645 5921 7559 1040 926 2698 3782 819 4441 990 7493 4782 7252 5811 1891 2468 6946 3415 3897 174 4308 7556 7467 5853 2673 853 5352 6703 6571 4724 4723 215 2644 4282 5606 7922 3331 1387 5092 4124 2377 4584 5257 5980 6747 7147 4799 2044
962 246
2218 3221 251 6036 1073 7275 6889 2776 5978 5459 7499 2700 2026 6495 3333 7631 6416 3016 5370 7859 7139 7746 4442 4395 2077 3188 7894 6876 5232 2455 7570 7449 2027 4172 5484 7452 7799 724 2227 5776 2535 6078 4827 4560 924 160 542 3691 3175 5911 3549 6665 2008 7990 3059 4085 7530 2952 2960 4761 1758 6881 561 3785 7405 2396 3236 7203 3120 1814 1330 2006 4243 6156 6565 5166 6315 3458 856 5841 1369 756 4505 7728 5098 3916 3812 4627 3219 3123 1387 4977 2004 6299 5113 5760 694 4700 1314 165 2865 2643 2170 7108 798 5086 625 3465 544 1481 1305 6264 6588 2162 5991 3685 6077 6155 311 5647 1277 6049 6975 7632 4347 4087 1743 1393 5138 3056 5909 3 2050 79 3462 7200 1516 4086 2664 6411 1918 320 1026 506 6833 3369 542 1261 1523 853 6908 7151 3253 5882 3135 3952 6321 4877 5344 7810 4285 3252 4164 2686 7682 7625 1885 5550 63 900 3960 1980 1220 1338 6837 4404 4706 3731 5665 2580 4583 4572 1730 4187 6805 1216 138 5125 2445 5481 4935 3081 5085 1098 5766 1118 5075 7651 3019 5137 550 3331 3468 6121 4668 6657 6877 1373 2387 4541 3952 3321 5464 2033 7507 4268 7601 7645 5745 2045 1477 2679 5125 2913 128 2890 383 5202 6892 3401 6690 3794 6731 6510 1914 3398 5166 790 4770 3904 1682 5073 7224 7145 3458 6730 7765 3058 2726 5509 5102 555 187 6578 3467 4666 5819 3849 6220 4711 7250 4909 4856 5980 3418 3121 5730 4935 263 6851 838 1944 3924 4413 5441 3733 7495 5205 6790 2220 2713 243 2774 7251 3172 6241 3916 990 6441 6487 2052 2042 7748 6907 22 3165 2028 2103 4452 6642 953 5289 585 1228 1702 6025 4960 1196 7581 101 7767 2293 4695 2541 5895 7866 5133 6163 856 7925 4649 7259 1967 4396 2518 6340 3913 897 442 364 7538 1394 2004 4474 2622 3705 2499 3933 1252 6431 4034 1019 724 728 7911 6618 4946 1395 1132 2153 1319 5781 1411 7637 6528 280 5976 2440 1176 6417 2803 5065 4163 1159 1539 3136 4863 389 3420 2467 6819 7453 7837 3894 4533 7747 6864 1478 5493 7995 3630 3163 5775 1392 2800 4303 6024 775 3094 7199 3544 2249 4264 4058 3407 2154 3545 4621 2542 6964 7087 1360 2769 3275 1606 7301 3021 469 5130 4865 463 5111 28 2590 2854 2827 3244 877 7953 6337 4428 7848 4937 5043 257 343 7196 3801 4964 1737 7117 402 7448 1885 3677 1053 5537 3049 5873 2666 4266 6336 4128 4293 5277 3333 3471 520 4210 7775 3208 4989 3975 145 2031 4231 487 1226 4384 1802 7314 3500 6556 3113 5384 6584 518 2920 5984 6390 1937 2249 1077 2416 6541 6353 5748 6363 6872 6309 6138 6432 3297 2112 6576 1679 2694 3414 2904 3429 1568 6569 6928 4475 6034 663 3058 6551 7934 1041 1292 6222 7642 2369 4989 6182 5073 7089 897 297 1749 7034 6728 5046 5497 5303 6724 4542 5068 5980 7971 6635 900 3250 3109 6933 265 2518 1835 198 3559 3127 2772 7552 1847 7760 5733 3271 3200 2981 3567 4949 2014 2294 1994 3862 3948 5069 404 1016 7400 4726 4002 4652 7975 7111 3584 4591 1628 1771 4789 1538 4897 3912 1089 3095 23 3174 2717 3223 6154 6284 171 4520 4929 6516 4733 5229 7936 5136 2596 7336 6213 6597 339 2540 2059 3922 7130 39 5692 270 5928 6940 4181 3369 6386 4204 6542 1103 7426 1047 3738 3948 1918 5018 2463 6651 2246 2398 138 4841 6085 6351 7790 6423 890 1848 6697 19 6238 740 289 4166 4032 821 7534 6769 5024 2427 4223 801 3473 7960 1100 1743 4978 3562 393 3575 2312 4882 4768 396 3232 4557 3171 473 2756 6219 4844 994 6958 5132 5159 7341 2304 1044 6110 7328 3470 2332 4480 3294 6644 5580 5036 3621 5493 1780 3547 7804 6662 314 4552 6245 4870 4074 3070 3978 2292 7913 1323 5601 1396 2833 4942 3699 3876 3051 7378 7345 1734 3858 2638 377 5789 4026 349 7633 2157 3896 3789 5170 4209 340 7767 5431 765 2836 5760 3056 2748 7082 5008 4143 1914 1949 4193 5789 1351 3571 5133 7437 3780 4122 7813 5920 4499 162 5552 6656 4057 1340 3825 4617 6031 3591 2047 6795 2778 7806 6202 5525 6887 3210 6019 5152 1510 2212 2940 7213 5782 4424 6649 1561 4898 2813 7480 1396 2974 1383 51 3382 2723 228 7999 5105 170 6397 3900 2948 6203 6453 472 1441 6014 2843 6593 3876 5054 5884 3088 7187 2308 6088 5099 7205 900 930 4952 3874 2312 1355 3607 1386 1582 3605 6491 1751 2002 6742 1050 4556 5194 5874 2348 3208 716 5292 3435 2121 3176 6522 1307 1835 961 2757 5391 1860 3686 2342 2085 2349 3696 5692 3735 5277 5648 2225 3380 4001 5318 4429 556 2511 6654 2904 2070 7369 195 5504 1489 7722 377 7147 1556 5689 6255 3298 3901 1940 5640 5985 641 1335 28 4375 2964 2028 2951 2695 6028 268 3475 6584 7130 2129 5839 1200 1497 2385 3055 7338 6459 7784 2836 4366 5472 1091 7664 1372 7382 5303 3709 4374 6637 88 748 5952 2115 50 646 143 4669 4121 3078 3799 6249 5268 1350 4097 7652 756 7786 6110 539 6974 2476 6011 4416 6491 7382 149 3793 3090 4523 6781 7530 1622 4733 1644 1672 1730 6138 2692 5850 1215 6490 450 2834 4191 899 2486 4947 5036 4947 5485 361 3774 7847 4776 2264 7229 1277 2408 6670 5799 1189 6199 7420 2273 4195 5443 4002 2332 135 6204 7899 6624 3005 7084
319 510
5921 4113 1643 2868 5949 2003 2993 5796 3131 1609 1376 4407 368 4397 2205 1556 6948 5976 180 3142 3419 534 1825 3553 6737 6075 6528 6093 5159 5694 2700 3079 6158 4342 2298 4107 2696 5291 6254 5826 3251 7629 2232 3618 4025 788 1526 2972 6764 1705 2465 6534 2238 4290 2086 5326 6716 613 7771 3874 2659 2470 6953 5168 6811 1250 1274 1506 2892 3879 3684 2494 3507 5915 6112 3884 3055 3989 3207 6170 2045 2024 4703 635 2665 6788 2312 1380 3752 2082 5254 2762 4551 4206 7930 7713 1807 1203 5571 1051 1434 1254 3544 1292 3520 6007 5175 6574 1995 4734 4743 392 6757 5797 1026 1421 4584 3337 2800 4688 1771 4405 7449 2673 610 7378 2386 6769 4933 7956 7819 6366 5561 3362 7657 1080 1369 1184 4006 7715 5917 5100 4458 1025 2897 5483 6797 3832 5172 1596 519 6942 6001 7968 5966 2962 7345 351 6082 4277 4658 5900 6994 6570 5614 6651 7650 3334 7834 7 7400 5750 1458 3858 3126 4354 5692 1922 4538 2863 7869 5056 6156 5869 1375 4122 5183 5072 824 7616 5700 1834 5516 4694 403 7481 3344 4404 2814 3177 4410 2213 5278 2220 2422 4755 2925 114 6676 7462 7328 6544 870 5484 765 2244 5957 2299 7315 3132 1914 1367 4965 3781 6060 5368 3261 1403 1771 6074 931 2533 4639 2560 4752 3412 7314 7676 3525 5989 3490 2853 4532 4359 4688 1648 2954 6996 3946 6621 2127 5860 7987 7092 1640 6046 811 4901 3800 2581 7326 4730 1465 316 7289 2568 3728 2954 6596 3604 942 2085 2808 1825 2795 7495 3473 5748 6490 3770 4368 4969 1629 706 4060 7621 6751 1222 873 2550 3802 4550 3631 1619 1218 7271 4186 1297 2224 2781 4900 7517 1217 7708 5694 4011 3554 1166 1759 2044 4935 2478 3364 2916 7536 3775 6888 2638 4996
848 3
5149 661 5170 6767 1878 793 2953 3174 3016 2085 74 6885 3302 7781 4578 7312 3334 2095 5422 1729 3381 4252 1444 6296 3787 5218 1535 6424 2213 1294 7963 7362 1955 1485 2480 3832 2277 5432 3358 1644 7517 3431 528 7170 7563 1457 6481 7248 3551 255 5329 6932 4506 6772 5227 4644 342 6762 7419 2554 4407 3734 6267 2713 1570 747 2897 3846 2530 6254 1841 6398 6036 6721 5567 1950 177 400 1197 3728 654 2877 2659 1511 6001 4237 6154 6342 7350 5572 5247 109 5657 3514 2821 7226 612 5717 7423 3141 322 1264 1539 6357 7984 7105 306 4512 7504 5855 239 4509 731 7249 6019 3083 3486 4172 1424 7187 6096 6671 7295 3752 2184 6468 7330 2795 536 6752 2287 858 4367 3825 3566 702 7282 3872 5214 3137 6078 1804 7646 3160 1053 5664 6243 890 1836 7666 76 4283 2688 3723 4386 1223 2190 3715 369 2725 6819 2656 7934 3185 6480 3500 3887 2113 3723 1100 5250 1800 2903 4895 1311 3955 2558 7553 1196 4393 3571 5624 5027 6258 1346 1413 7481 7887 1479 7849 6963 297 2504 3249 3482 5336 6748 7368 7448 6822 4819 4697 4973 4073 1591 6283 28 4149 5836 5575 4893 5758 3198 1920 4015 895 7684 3495 5133 1162 7696 448 5811 2199 3696 1292 7534 6795 5011 3334 5616 1829 30 2588 5901 1621 5222 2280 2121 7409 4207 3365 5166 3756 5284 1181 4651 1319 1027 6135 6833 722 6582 4643 2921 2277 5934 6806 1071 7296 2139 3038 5476 6521 1977 7728 4493 7199 2008 6613 6607 2566 6329 3773 6321 7965 4953 2971 1283 5979 5458 115 6701 4039 4757 5973 6316 7042 1130 3738 6337 3269 3128 3812 6141 5104 3540 2633 4302 1899 5597 2909 4464 3925 3033 7136 3889 7985 6459 1524 2315 3916 5990 5367 7954 2747 7691 2621 6140 821 2711 4477 441 5838 4640 6581 2941 4531 5565 7243 2781 7513 6503 3596 7789 1535 2732 30 5871 1190 1553 4537 1457 7542 1904 1410 6640 5946 383 4780 6766 3093 5608 3558 5282 6599 2138 222 3130 4054 3816 2262 3566 6670 5858 7707 204 4941 7736 6074 6130 1288 6963 7586 5181 866 5347 3821 3163 5729 4952 1929 5173 2559 5486 2454 5509 3976 7028 4990 4381 2843 7252 4299 1513 5109 4005 6068 2049 3740 494 4530 1379 7456 467 6559 4673 5813 2379 7835 7894 7330 1763 1418 6240 3601 3872 3749 3928 2899 738 4660 2093 7989 958 7957 1449 4962 6025 7849 5053 6518 4378 6431 5973 1196 4990 6997 3361 7368 6831 3254 3050 4946 4671 1289 546 4894 1389 825 7792 2127 5484 6237 6467 6442 6193 7916 7755 4217 4116 4808 7086 4846 7590 1410 6041 4579 406 1401 299 7237 4654 3348 4182 5677 988 1079 2570 2377 6255 6714 4503 3738 1302 7321 6531 7494 3588 2638 63 7704 3797 3500 4549 3386 4910 2589 7965 5315 342 4615 903 1347 7962 5084 7023 5301 2514 5945 7677 768 1010 531 858 2311 7852 3740 6156 3439 6377 6218 3142 2173 1718 7690 1911 6627 6631 6227 293 3324 2841 1196 4670 7154 2631 45 4454 1497 5989 4131 6616 3350 4661 7473 5660 4512 7565 3815 7951 5941 6385 7444 4466 4454 3486 6376 7432 6468 4602 7724 1791 7442 5271 6460 6595 4254 6504 7400 2102 844 3530 717 545 4543 4542 6204 1054 4106 6371 5356 2046 1107 1152 2863 5560 4637 1238 4991 3104 5839 1066 4894 1632 2689 7705 226 6942 2561 7626 5395 3404 7507 6111 301 4049 2652 6504 1455 3109 1226 6810 1507 2332 7961 4369 4243 949 5607 5585 4052 7797 6651 5297 1429 5691 5002 1654 984 3914 5631 6378 7317 1490 4488 7617 5538 3492 2473 6992 2952 50 2154 4458 6734 6466 827 7328 3767 2785 4913 7818 2581 7915 1467 4009 5605 2820 2015 6588 6733 3997 1317 2401 5486 2156 6370 3024 1999 5194 6367 4951 5243 4872 5760 3976 7690 2938 3304 3456 5722 4568 7625 4655 4482 1091 663 6438 3910 7029 1377 6994 3026 2693 1395 511 1200 7764 3534 3199 4957 6253 4501 6551 3124 2260 6879 2813 5198 6534 6268 7271 3101 5893 3925 3934 3335 940 2371 3597 7968 3747 2590 2993 2791 3984 3504 3990 99 3389 3540 1407 1641 40 7958 1117 2300 6836 3929 3849 5369 6549 3119 469 793 3396 754 4127 4335 3124 4075 4302 3222 6665 7295 6012 7000 7150 6353 7099 2538 1893 4857 531 1932 4814 1647 583 3649 1927 4431 5369 475 3902 2189 5619 7297 2942 6098 3631 6065 2172 4284 1286 5188 7930 3649 4188 7079 6354 7638 5969 246 4494 2851 6529 1308 4497 3464 1308 2775 4246 6677 7602 147 865 5220 7443 3807 3317 7425 6223 5489 3709 3861 2676 7990 7509 3215 7069 2214 2852 1389 6811 3698 4239 1692 1357 5087 5155 2664 7861 1400 1340 7462 5899 6557 4682 1693 6715 4350 1118 4937 1838 1178 797 866
463 497
432 4587 6871 3284 5975 5682 3333 6565 3725 4689 3651 879 3704 7864 6630 1396 7325 4528 7952 358 2573 6666 4708 42 3602 2897 1219 751 3762 6737 5408 4194 7676 630 3829 2002 2663 3513 567 6387 201 569 7265 3904 432 5895 5299 7757 6774 1602 4466 1346 267 1173 1387 221 4070 6957 971 4183 2046 2730 4728 1721 3359 4908 3722 6022 420 640 4408 4972 1209 25 5228 1640 2271 6878 5748 1044 480 2214 6742 5098 7738 4480 1670 3807 3437 6992 4342 1834 1721 1069 3554 1432 2329 3627 7453 2748 4267 212 4072 5475 236 1299 3466 6858 4528 5566 4254 5007 7779 2995 6457 7516 7474 126 7675 7262 3470 4016 1095 5190 1436 1000 6621 116 4627 2425 7216 5245 2637 3287 2719 7224 937 2536 6082 5464 101 2335 6823 4231 1681 1631 99 5506 6108 7773 4768 1577 140 2214 6767 5927 3214 1739 6043 4192 516 5258 1436 3152 4896 506 6727 5832 3041 4808 7647 7494 3494 6469 3724 5174 99 3822 2680 2559 7946 3799 4135 4437 6012 7253 2364 5577 5344 406 1768 5859 2015 7555 5362 6910 60 4088 1093 7453 5248 739 3298 5093 3560 3373 2267 10 3547 1298 2568 3492 5096 6703 7929 7459 2307 6644 1388 7650 3401 7507 5508 5415 7062 2869 676 3473 3309 1768 7277 556 6858 2574 5648 6769 2299 4266 6779 5845 1915 5698 5688 3362 4400 1968 2821 6707 611 560 6356 4011 66 216 5777 3479 3084 6452 3304 6392 4571 2580 3299 7781 1506 5299 6549 3804 5916 1679 6000 7831 7377 3687 3192 128 5655 2364 6834 6265 2923 1542 6628 7341 6109 4404 2819 1192 7208 2474 3936 130 1406 3586 7910 2911 5236 2811 3066 3152 4489 1065 2982 3865 4751 6173 3993 6757 4889 7178 1374 7811 5071 1 7151 3179 756 6322 723 7963 5147 1010 4445 6552 4595 4354 5814 1831 7164 879 1334 5 6295 4315 221 7398 6839 4213 6154 3727 7743 7527 7890 1165 3879 3392 4344 4635 6065 1418 949 3212 2427 1745 1763 3373 6099 7577 1555 1614 4807 2888 5970 3102 3554 6191 2499 2393 6755 5004 2471 6497 4531 2360 7662 4761 2104 357 5747 168 1774 3048 3379 552 4792 1494 3924 7242 5422 5479 5208 6580 4718 3177 1681 272 1367 531 2664 122 5535 1486 2970 6417 3846 2631 3177 5949 7339 5276 2468 1112 323 2199 1663 1466 3692 1939 708 5465 3769 2267 396 486 5443 2077 757 3162 6959 7772 7635 4493 1258 2604 7261 1455 1587 6790 3755 925 4065 6222 6389 739 420 4403 6556 463 2693 7263 2279 6461 1529 2675 3299 3324 1103 407 2837 61 179 2471 906
860 273
166 3594 3012 3307 7348 289 3723 5569 3029 4461 2341 7431 3017 2803 6476 6631 1434 4936 4512 4108 4586 4187 5210 4993 7023 1622 1523 1493 2527 7310 2918 7045 7255 2282 2351 6602 6922 6074 522 1950 6886 7214 5732 1902 6369 4207 4885 7802 5495 1396 3909 2080 1934 5470 3424 956 7091 4946 6800 5970 607 6069 5014 7861 4702 7364 2814 3623 1789 3336 5572 675 6901 7656 6928 5269 214 3812 5070 5708 1559 5330 4140 7844 2799 7563 799 6242 4509 7598 4211 1467 2019 5576 1328 6720 4939 4141 2343 3080 3828 4266 3754 2729 273 7033 7997 487 7197 1419 2546 755 6748 3037 599 5899 6952 5749 492 3460 1699 1054 4926 3717 6629 2605 2436 7919 6746 1130 2998 6925 1748 3103 1653 2020 2136 6002 6858 1332 7420 1404 6438 2519 792 3388 4769 7743 1137 5260 3202 7187 6313 4480 2903 1293 3436 1690 1212 6533 7172 4209 5458 919 3664 7110 7290 5799 5111 6148 3482 882 7551 1919 3401 342 5307 169 85 2795 1781 7638 1981 4445 469 1235 5738 257 2924 6949 6789 6447 7509 4246 7365 3172 3356 6655 970 4818 4802 4451 5700 704 2722 1100 5397 4380 5620 1833 7174 7400 5823 1154 197 2643 6740 5934 2899 6015 1234 1688 4462 742 5933 178 3914 5640 6832 1235 2458 7985 2038 4509 5040 1111 1960 2437 5490 7579 621 4663 3331 6443 2168 3527 5438 907 5812 336 6921 7045 6375 7734 4138 660 7912 4403 6299 3095 5638 5108 3080 4027 5968 4471 5137 7927 3259 2626 7506 3880 3640 7188 6674 5807 7066 4111 3065 4877 799 6337 273 3525 6071 4410 4184 5982 813 6835 1076 2802 294 507 6828 6262 4978 316 2540 236 2941 6397 467 6580 5584 3493 738 1001 3955 3802 5877 4753 6490 2501 4630 4560 3263 813 6893 4075 3999 4321 6876 645 1179 2055 6906 6156 2370 1445 2744 1662 4194 7562 4593 1777 3054 5330 2778 7009 5483 5006 113 3972 3859 4742 532 7121 1907 3776 3195 2257 96 6422 2901 1275 4828 6158 3782 3549 3955 2877 5210 148 2439 6154 6276 1844 3483 1053 5204 965 2411 5317 1288 6269 6410 6171 1741 4668 1947 1287 6925 6394 4060 6177 7668 887 4335 7802 4435 4641 2678 5996 4788 1468 4149 3063 3312 3983 468 4867 1299 7230 2183 2586 1850 4945 5109 3590 1612 7055 4876 4888 5448 935 3065 1468 6173 3751 1269 6959 391 298 1306 1530 1766 1806 944 1429 5788 1411 6295 3438 640 4830 2375 6841 6126 7483 2430 4089 2889 3657 977 337 943 393 1804 3467 495 7424 2425 885 7721 3730 6766 1486 1887 7709 7266 4026 5472 1913 7463 2463 6742 6190 1304 4867 5672 85 955 561 94 6283 5249 1036 3027 3404 4503 3521 2827 3279 757 6899 7009 7522 4737 5247 3583 4002 1273 1054 5914 735 3516 1007 6924 4819 2225 948 4904 3180 5860 4997 5814 7460 2384 841 2863 6886 4361 2041 6517 1470 5291 5525 991 2027 2771 4573 2381 395 5626 294 1130 1142 5653 4405 2312 7877 1704 7215 7408 3915 563 5222 3374 2947 2414 2588 6184 3126 980 4700 4595 6271 6576 1938 4649 5699 2862 7029 6093 488 3675 3574 5981 1327 4331 4644 1203 6034 211 4963 1949 773 6536 5322 71 949 4262 2607 4074 5241 3658 5021 7863 6586 6958 4512 636 1819 3540 6728 6658 7214 6654 990 4892 2984 5634 2447 5369 5844 7409 7317 2968 5944 991 7391 3244 1604 1997 7317 6844 5654 689 6707 591 7646 7570 1226 1465 3109 4306 122 2323 2959 5464 3566 2294 3097 6012 7662 940 5420 3331 259 7715 673 7649 2958 6628 1645 6627 5471 3651 7315 529 4241 6961 98 1819 4777 7559 6124 1250 1881 5434 6713 5446 4079 6161 7810 92 7100 5229 3422 3711 4944 446 3359 4253 7073 5004 2879 896 5006 2194 5776 5598 5506 5874 7416 6634 5432 1891 4235 3664 3676 2948 5461 7754 1108 5270 7846 4560 6851 7619 270 146 4417 7980 4398 7841 1335 7277 736 6340 5822 6512 290 7679 737 4057 6312 2520 5948 6898 2535 5975 1845 4347 5729 7305 5969 1926 216 1171 1544 4837 1316 5960 4816 5713 5801 6151 1341 2888 842 3514 5751 1131 3192 2839 1540 5855 5358 3839 4753 4244 1813 2949 4943 7541 2253 2911 1466 6820 4081 7362 8 1748 1673 4824 3812 7473 7326 5153 6713 4519 666 4463 5650 3858 7302 3541 6064 1011 7379 2816 1607 1191 5765 6549 5084 4369 5811 2901 7541 6243 2262 7548 7990 287 723 3801 7759 48 953 2823 4567 5971 3638 6568 6180 2939 2108 4243 301 5838 3411 1907 7028 5527 4807 463 1895 2617 3364 5787 859 1977 5335 5200 2263 6057 1001 6374 2457 6305 1196 3375 4275 4833 6294 2454 4123 4753 3049 776 2590 6459 7034 1617 3985 3841 2080 2231 2809 1795 18 3668 3771 1704 867 6034 4112 6219 759 2920 4524 1954 6294 5150 3139 939 3956
221 250
7004 4388 280 5462 7774 6249 5798 7966 4680 28 2774 6474 4397 2793 2244 6100 12 4629 6564 6230 5387 1483 7105 3693 4129 4255 6831 5067 210 6795 2758 7213 7535 7389 1026 7308 5637 3175 7273 2316 7554 2046 789 3951 1191 7385 6402 1202 365 4965 7431 2104 2800 6536 5796 6928 7142 978 3994 7351 7772 6751 2915 3658 6140 292 2965 128 3466 2237 2444 7371 635 7584 7673 1825 3320 6075 3026 3685 7391 6808 5788 2190 5343 7935 1117 836 5264 5111 186 1387 213 7452 5045 2704 7743 9 2832 7560 6598 1627 6931 3584 1210 6603 5408 4530 1029 4785 4566 420 3592 6705 6961 5287 2991 78 6122 254 1540 2660 1640 6104 2111 3036 808 1854 3045 7991 1413 5994 1617 4695 1577 2826 7650 6984 3707 678 120 272 1097 3711 3328 4410 5349 6318 839 3471 6571 2378 6130 4563 4833 240 7598 1992 6445 6994 1982 4210 4987 3598 5256 2915 2776 4905 6250 6482 5583 6369 3106 3031 6432 6433 7440 3780 4751 278 3602 7673 7007 1731 587 3840 6323 4537 5831 1119 3530 4165 5328 4869 7762 2584 7783 2537 3840 2385 1019 1422 753 476 4453 7184 6908 244 7316 10 522 2917 4035 3880 1000 4621 4071 3674 1157 6254 4792
591 369
6472 5907 2179 5407 2041 1068 1246 777 6438 7020 1530 6913 3472 5065 5820 67 4380 2182 588 3649 6216 820 4648 2836 4890 321 345 3143 1464 1383 5560 4287 3641 4091 1693 2033 5158 7291 2810 3595 6310 691 2507 6133 5755 4678 6199 6487 3211 3139 2135 1426 3958 6782 614 5199 3454 5310 4694 1269 3044 6605 5556 6684 2695 3600 5068 4204 2890 7877 7798 5551 567 6656 35 2674 7686 6234 1160 2896 1372 7646 674 1681 2779 5639 3231 6232 2948 7924 7500 5991 6529 1407 1026 1223 5007 6093 5427 4248 2322 1576 1799 7240 4584 1833 1913 4269 4418 7424 3516 2141 7069 4189 3821 1847 1827 7052 4430 1126 3327 3930 7116 1855 5336 141 7430 6694 2586 4856 2942 4907 2783 1092 4146 7366 2924 2411 3634 3694 1834 3502 5834 5255 7690 6007 7101 5869 1410 7883 6994 4736 3812 2462 6591 5499 2602 6020 545 1539 7227 3486 6445 2009 4577 6943 5727 3852 1353 5712 7545 3186 1213 5379 440 903 7737 3893 6771 1146 3775 2116 5881 3938 4577 823 5788 3531 3194 6332 5069 2420 6169 7866 781 2745 6808 6507 2949 160 4218 2493 7697 5431 4223 137 2685 3959 381 5807 5104 4155 4274 7337 4444 851 4511 2231 733 7705 4915 2153 6476 3083 2018 3608 2180 825 6466 5128 5336 7036 3972 5033 818 4547 1521 3502 505 1901 5660 1961 2407 1933 5649 6850 7135 2159 5432 7867 6215 6698 2020 1043 6133 4037 4650 4664 1214 3116 6143 2901 2151 2114 7933 2968 3012 1453 2821 3517 7705 480 1829 2111 6764 3829 5312 5899 2339 7096 2117 554 2145 4136 1596 277 4525 6245 1292 2090 5712 7434 4990 4214 5900 4923 7181 911 2727 6353 779 2432 3184 2607 894 1948 2787 2558 4198 5126 6005 6314 5679 149 6802 3626 4778 7678 6222 6069 1767 3934 5503 6756 147 7754 30 3680 664 2757 6384 1443 1540 1568 401 6785 7867 3188 5694 416 313 3698 3081 5991 199 6234 5968 4976 5911 4189 7396 7677 4474 1250 2785 973 1003 2814 4652 1667 1922 7387 7461 7813 5306 7861 6598 1524 3048 4291 1939 7712 7989 1372 2054 4539 7605 21 1514 5516 4210 5261 1544 683 6511 4328 1655 3865 7142 2658 1883 5415 6397 1343 5228 3702 5556 3825 5226 603 4467 3516 4667 807 1239 6720 5345 844 6741 3210 6359 7302 471 7902 4336 3333 582 2343 7197 7723 1352 1080 1489 7748 6774 6716 3450 4329 6892 5027 1284 3359 4894 5950 4165 6133 1021 5862 6976 7761 1071 1686 3414 5893 5939 7750 5577 2872 6444 1126 6946 7795 6557 435 7543 5330 7150 7344 6011 6042 4370 7294 1400 5615 1595 1916 3747 2615 7777 7074 6728 5200 5111 2141 7444 7402 6242 5021 2273 4685 6146 1219 4480 4702 1653 374 6383 5154 7717 4393 3195 438 3686 946 6052 5280 2862 6151 4247 6990 5224 2974 541 6687 1466 7985 2440 4060 5005 1064 5096 7502 6634 5927 555 286 6300 6937 1792 2368 3330 4986 2805 7015 5932 857 647 5145 3359 1245 486 4934 570 1027 3620 6387 1011 2411 2446 2367 3475 3894 6220 2108 1820 6774 6746 4472 5710 537 6839 1039 5522 1644 4406 7805 6852 1404 1301 2210 2648 1787 7143 7569 2813 7115 5955 175 1525 401 6893 4999 4294 5112 3459 2465 237 2204 6936 5946 2740 2127 3337 4613 3770 4094 4418 6973 5497 5718 1182
656 79
4676 4064 6668 142 2018 3194 1667 6770 6438 3017 7415 7901 2827 6232 137 5030 5167 6083 4121 7293 5771 734 7414 1864 1503 6386 3712 7220 3919 207 7428 4947 622 6095 5088 6991 5641 3106 2113 4078 2475 5879 3979 5301 4110 4115 6683 5629 6549 2803 1273 671 3536 687 2534 1390 3424 6245 4962 3695 2803 4389 4993 7776 2483 6432 3119 4475 1538 5231 553 364 3109 883 2016 7219 1349 698 1199 4250 3501 2471 4920 3388 7509 3806 4778 2933 6402 1739 2979 5557 6127 7971 5332 4961 6402 450 1436 4291 2032 6340 4654 5141 7222 6670 711 570 3719 1909 4819 7219 731 6091 6959 240 1896 3736 7524 4649 5474 2502 2205 7952 6824 7537 4912 5225 4338 2699 5868 6370 1038 6873 7862 259 5542 4924 5181 5613 3184 6351 4831 3914 793 3789 4153 2688 3876 3676 7337 5701 6177 1541 5652 5000 5429 6916 6577 6119 1614 4444 4488 2652 3316 701 7262 5210 5624 794 2822 807 7145 4004 4720 4289 4145 873 6977 4372 900 2665 2073 3429 557 7724 4780 2338 2991 3356 456 4605 4151 1295 3608 3819 1995 2869 5380 7618 3663 4553 424 7159 556 5143 3447 1052 2367 6775 5424 3267 5791 7496 6695 2700 3571 3474 5037 6562 3182 1844 7518 3684 3138 3125 7502 5132 5993 1233 4749 6007 5785 1524 1517 2693 6666 4964 96 5385 90 5519 651 5881 1366 3697 580 1289 3522 1968 4202 3055 3811 3719 6739 6948 6843 2592 4079 1187 3825 5179 3546 1609 6702 5062 653 1719 6377 749 7103 6467 2619 4105 699 3985 7801 5630 1625 7675 7597 5826 2729 7759 5896 1467 6706 1090 4059 7136 2276 4235 666 2173 2195 7367 7235 2848 5437 1963 3596 4540 4781 6214 644 5479 6550 4797 7460 174 4471 7056 2351 7199 3166 246 5018 1871 1335 5428 5358 7963 1662 2375 2135 3856 6093 5721 6703 3530 7684 6650 69 4464 1216 5064 6295 4117 6212 5754 643 7034 1162 2993 2585 4327 3239 7602 2550 4573 5029 4259 887 3042 6634 3022 3249 4726 5094 6304 255 4777 4953 4675 5593 2520 6091 3887 6637 654 5992 7279 7688 3505 6623 2272 4184 1861 1873 3085 2786 3253 7343 3672 2646 2328 3045 5894 3406 139 4197 12 1267 5502 1039 6859 21 7129 7097 3009 7782 1441 6639 7469 4945 5262 6092 5480 3474 7964 564 2611 7568 4259 6283 2213 6586 5679 4459 6343 2169 655 6355 3436 6156 7393 6646 2529 6521 5743 1889 2654 3535 528 6475 4831 2141 4566 2311 5614 882 2874 225 449 3484 2859 7014 6422 4889 3472 4764 7058 478 3118 6845 6634 2510 5490 5514 5382 7584 3754 4388 3118 4281 7214 4301 2773 3779 6611 4739 1012 5836 1315 5813 1320 525 4826 7741 5413 4649 856 822 5126 3974 7666 111 2835 1508 1976 4569 5443 5730 956 4913 6362 169 1213 1135 299 7823 5873 5663 5658 3539 3475 3329 4063 4652 7421 1475 1300 277 6649 6425 602 2666 2888 7788 4173 4863 4356 1616 2592 1663 6528 954 6183 7740 2088 6482 3914 4312 496 5923 7850 3970 1252 264 621 5024 1738 1920 1652 4738 4696 2253 7404 7583 2041 7928 4446 2748 5895 7037 4411 774 7990 2593 513 6429 5426 778 7092 5921 6701 3293 6242 4304 3556 6862 5679 5294 5133 7331 6383 6181 5935 5786 5763 4327 5714 6560 7075 7960 1949 7837 734 1938 2429 5598 4719 4207 6376 3810 6479 1428 7103 4721 5731 2658 7934 3409 4303 5067 7091 2686 7599 5026 4823 5361 1352 6888 273 426 6848 2221 262 7581 510 7043 1530 5228 3249 7905 5390 6079 1332 844 2799 3414 3501 2733 3175 4156 4151 2265 3193 3749 7290 4367 5461 642 3255 5733 5419 6454 7953 2033 2386 463 5427 3915 2042 5027 172
839 96
1503 274 5904 1269 127 4988 4443 4282 1138 6707 3826 1238 2349 192 6698 7342 7798 783 1112 2603 5087 3144 1340 5549 570 1607 3943 5596 1778 3373 701 7632 7999 2956 900 125 7943 1694 758 5432 4753 4583 3021 7101 1126 6070 2794 5276 6852 3905 7878 291 7049 5570 5839 3970 7176 6133 5918 953 1506 2970 584 5856 2277 5836 5980 2219 7529 3089 4002 633 4023 3374 7733 5148 1443 2526 6775 4647 6431 3005 4937 1831 574 7127 2152 7749 5260 69 5053 3117 7390 5636 972 1666 7823 3303 236 3704 6391 589 4336 2413 3962 421 3912 5405 7298 2687 2051 2080 5691 3339 3910 2616 2465 2414 2364 7724 6834 3768 2840 6224 5755 163 4241 5578 3465 4477 1281 1855 5065 1968 4267 5379 2388 4531 2783 1686 7217 1185 3765 1259 4523 4027 3874 3339 6440 2589 3063 5273 6356 2254 7848 462 2417 4089 6039 2233 565 3671 4088 1981 5639 4706 7359 4378 1236 6493 6063 4804 7677 6180 2414 551 2206 2639 3890 4997 5227 3304 6621 7934 1909 6469 396 677 6909 2786 2910 7473 6457 6997 5805 447 54 1516 4824 5642 8 7239 2445 4037 1770 1211 939 327 3849 1180 5323 5428 4483 295 5361 2744 6763 2108 3420 5671 1246 6329 1495 4054 1677 3652 4500 6083 5167 5675 3724 5174 1265 2520 1210 3034 3730 6501 3360 7579 7680 5034 5006 4163 5329 6718 6906 443 5178 6677 6114 6423 5006 3960 6828 3034 7611 3327 1116 4777 5353 1191 6303 2970 3711 7512 6003 3792 6012 5715 3370 2044 2748 4727 6206 4428 7797 1463 4871 1326 4491 2984 4100 1496 3295 2927 882 2906 2605 1997 4034 7957 3188 2336 2926 3250 6200 5281 7041 563 2995 6763 2606 2094 7841 5163 6522 7637 2977 3392 962 7468 2727 1413 5315 2373 4339 6196 1630 6943 4545 5664 6900 4084 4351 6177 7333 2550 3457 2725 7465 2803 1487 6422 1249 1328 3585 7770 5316 2913 7513 2630 2380 6591 4042 4047 963 381 6594 2593 7323 7490 4608 2574 3573 958 5103 7257 7860 4911 1982 7324 7714 7820 2097 962 5499 5681 5083 7167 4946 4595 6148 3677 3185 2189 7723 499 6921 2669 7443 2596 2158 4050 1521 5731 5008 6623 1339 1219 3534 7672 542 3247 7492 6990 560 1342 4671 5642 508 5968 6588 6655 1644 6124 5196 5719 6622 4116 387 6065 3063 2544 6466 4584 274 3473 3206 1613 4691 3091 5636 1584 2689 5127 574 3248 2821 1596 5241 3328 7563 180 6335 5558 6303 7882 3276 1277 349 3662 3693 3412 6206 2158 7995 2831 1983 7552 795 6673 6995 6431 4609 1683 3557 1534 1283 2729 7481 6523 2409 3395 6703 743 952 1357 4976 4228 2633 5324 7889 6325 735 6094 4835 5081 925 6817 985 6071 1841 7979 4501 2801 6013 4410 4334 7295 7138 3814 2170 1546 7208 872 6640 4512 2228 3615 739 1213 939 4979 3889 6025 7425 723 3106 4701 3891 442 2771 5732 4772 7272 532 2784 3681 1218 2079 2818 1383 4248 4364 4943 1471 7355 1454 50 2970 2192 1262 3908 3522 1503 6284 2946 2225 1389 7646 2468 6182 2417 199 2953 1688 730 5737 5368 6299 7815 4537 7682 414 5252 4624 1884 4607 6077 1933 7576 4620 7547 7835 141 1049 6118 3087 7625 3859 2732 2092 2040 5148 6642 4993 3187 3724 7081 4906 2022 3247 1443 1703 3660 6694 6326 1895 3300 754 179 7227 5373 7725 7061 5514 5125 1531 4952 1102 5389 4035 7545 3780 5535 6187 5124 721 1910 4204 5627 3931 3802 3421 5634 7461 6466 311 5707 6118 1065 5886 5344 2789 5610 757 4654 7087 2287 1605 188 4027 5640 7732 7806 3174 5918 4930 246 7827 5485 2224 110 1287 1996 2095 5099 462 6757 2806 6579 4173 691 3922 6962 6300 1030 3615 5386 3316 1572 1925 7342 3563 1657 7148 3088 3926 429 7685 105 5913 1909 214 3551 3904 6660 650 4365 5416 3455 7295 1589 4145 7569 550 6796 598 516 534 3914 6439 2458 7607 6353 466 6754 1440 4392 3534 1125 4496 1447 7385 1061 1349 3288 7720 1998 4005 5135 5452 3299 3075 5948 7219 7976 4744 7817 492 5277 3730 3282 4086 7688 1635 4552 6442 3074 5295 6327 550 6142 4125 7934 7202 5474 7574 3273 7471 7930 407 1275 3228 7834 7222 6799 7809 3965 6615 300 5593 6696 7934 1679 6383 1568 2582 1176 993 4228 7503 5895 2369 3627 5828 5922 1100 1753 1194 4923 1682 5952 6197 1262 5785 5418 60 5594 1383 6674 2245 3327 5369 2178 1357 103 97 290 1279 5442 4517 781 3336 3237 759 5515 1158 1859 7268 6703 6781 5301 4655 1329 6562 6791 6746 6621 4384 4480 1646 2981 7807 3366 1510 1163 3469 5959 1453 1099 3400 2321 1879 6735 5558 2637 4249 3067 847 7868 1770 3979 5169 6424 5307 82 5214
853 302
5950 532 4700 5282 4690 4418 6791 5853 7886 4749 3657 984 4500 5977 7214 3234 7886 6202 3835 2953 7049 3702 4722 3027 5222 7497 334 5304 1062 738 358 7011 1269 5057 644 5959 1474 3787 163 5711 535 171 3046 5035 2499 6611 4620 2385 4813 454 1689 213 508 2762 3239 5729 2258 7924 3032 3319 661 3389 6682 6282 4798 3677 592 2623 7463 754 4686 7998 924 4083 1384 7774 2694 2355 2158 3858 7161 198 4070 7668 2959 3660 1748 5216 3584 1132 4887 596 872 7920 3229 5669 3596 3820 4644 3059 925 1329 7408 6200 5411 5143 5974 4456 3849 131 4665 3009 329 734 7028 7639 746 5128 1207 681 6259 2445 5628 7130 2364 857 4799 2311 4676 5794 1721 1953 7122 5480 152 884 6974 6125 1692 7175 2608 6356 6535 7288 3442 5563 6926 539 2690 4484 1219 5300 6928 6846 4429 5643 7702 5579 4306 730 3372 6026 2682 6845 7858 7185 7729 3183 5310 5772 2357 4269 479 892 7908 3920 2806 6833 4458 1847 3317 2028 7146 2244 5226 7926 4239 4927 5505 544 2008 5228 6569 1041 4073 2778 226 153 2313 1887 5924 4669 2507 2754 1912 2414 6674 1069 5598 7483 2915 914 5863 6412 7510 3088 6338 100 4366 194 643 2726 5421 3563 3766 5845 6341 343 5997 653 6581 272 1673 1087 3026 7937 3500 6051 1005 1098 1885 272 6363 4099 3035 2224 7186 5724 2323 7904 5917 2965 2629 7690 2880 2746 5534 1220 3089 7883 6224 6021 4506 4248 7108 3883 536 6959 6285 1541 4408 4522 6164 7123 620 1198 5698 4158 6922 4373 413 1190 3689 3041 879 6568 5786 2765 4139 5226 2647 6714 7599 3504 2962 6706 7387 3497 2016 2023 1389 2776 6544 3904 6250 3516 1454 3947 4025 4727 319 4437 5916 360 7477 6795 6927 1614 5911 3066 3192 4909 6131 2790 412 5444 5847 4150 941 4214 6173 6681 6989 1068 6937 5238 935 390 5537 4959 5116 2207 1395 3031 2566 5223 6177 1493 3189 439 910 6380 5347 7040 5521 5759 4484 3367 6260 1776 7580 784 4808 2921 1852 3744 158 2786 485 2046 4097 5600 4253 5491 4983 6818 7066 7511 310 2254 7950 5571 4985 5296 963 2505 7406 1798 2223 2018 3573 6154 2801 4732 1074 4652 4828 5584 3790 5312 7629 7886 7264 3881 1728 598 2699 793 4460 7360 3046 4409 1283 30 6057 2245 6886 1814 4042 1108 3831 3966 7262 6632 697 335 7635 1876 2270 7776 7188 1899 7661 2803 5779 1389 7752 4829 6533 4211 4189 1579 620 5471 5960 3028 4067 1198 1193 108 2305 5024 425 5918 7 5473 2605 3993 7349 4874 3769 2888 6772 7781 5690 903 1169 1793 5731 7702 6003 6271 5632 2974 93 7943 6001 4159 1140 7194 618 7797 569 1042 5714 4927 6515 318 919 2215 1544 4687 5102 4667 820 7143 5569 1988 935 7652 6041 6937 2274 24 1911 2367 4319 4263 2877 5458 7808 7847 5254 376 5240 7320 5302 3754 7637 2573 2320 1180 3611 7421 2199 4430 6563 7767 2770 3849 3770 5162 2786 6044 1538 1048 4762 5856 5310 7638 3313 5118 3836 4919 1845 1076 4238 3499 1181 3874 6071 3501 1406 6033 2921 3604 2463 5836 7722 1584 1684 3492 6745 821 5887 282 1868 2648 6137 3530 6637 5802 4999 2473 2720 6843 3548 6957 2341 4728 7182 4763 4580 4939 2796 7501 4894 1610 1688 968 3193 3371 811 1937 544 6697 6571 6763 5696 1059 6644 4332 6860 3642 3156 5931 2485 3055 4887 1177 4135 421 5940 714 1711 5087 214 6605 6696 6253 7572 1888 1624 4734 176 6519 3430 6746 1633 1125 7805 277 1808 3016 3918 1316 947 2754 4370 2185 3931 504 2605 6222 1218 4316 3308 5783 7272 2003 4036 6843 3890 2011 7928 4065 529 3357 7163 2161 833 3319 6789 6992 6334 2707 307 7280 5460 4677 1465 5742 1532 421 315 2749 4736 3622 4884 4007 1976 919 7201 2217 2929 3480 2634 7809 6836 1796 6321 4020 5114 5110 3012 7799 4168 7670 7079 5979 698 4895 3721 2230 5315 4035 1330 6403 4009 6213 6761 5984 7131 2314 4553 6411 5793 7186 2571 981 981 892 5000 2446 2353 4363 2244 6520 4033 5674 4498 4730 2568 4570 3311 4235 4957 4641 6989 965 2853 2101 3300 1984 4414 7852 4746 6559 3389 7317 7539 4369 208 890 3166 6912 5253 1762 5431 5637 7435 6280 6718 6355 2850 2029 6941 7806 6669 5929 5122 1521 29 421 7856 795 4625 4602 7353 13 3918 3243 734 477 4132 251 7388 5736 2012 1170 3372 1447 7449 6442 7801 2298 470 3093 6455 7138 1021 3576 5010 1049 349 4866 6195 1325 5819 5547 1337 6088 789 6422 6564 4921 6673 2303 7008 684 7824 2380 6482 7272 5173 2634 5922 5642 5726 4376 1131 6746 4304 6140 4147 4652 7357 2341 5976 5175 4240 3664 3262 5028 2086 6177 6300 5110 4831 5308 2145 4654 4039
