1000 1000
42 509 34
501 670 24
479 837 62
465 1170 45
282 1109 61
492 1487 42
828 1264 91
605 1507 53
293 675 21
717 1435 95
448 1174 71
539 1408 12
668 967 35
895 1598 11
323 656 73
665 806 11
254 1122 47
645 1307 57
38 897 23
742 1271 78
317 352 90
843 1131 6
41 983 64
649 1095 5
891 1620 70
351 357 1
394 942 29
624 708 54
757 1597 66
377 1308 8
945 1384 26
324 861 38
119 201 29
542 1375 15
640 1298 4
931 1908 6
674 1060 21
746 1670 72
271 1100 77
574 671 12
987 1277 61
637 992 67
656 1230 31
53 403 50
942 1666 66
431 538 91
8 345 57
288 1041 83
946 1855 9
759 980 88
423 1369 6
31 444 68
901 1492 62
656 1066 59
625 1162 48
484 1079 41
603 953 91
837 1211 20
597 618 48
200 868 84
282 1016 53
1000 1418 38
901 1689 27
468 1196 93
649 1132 7
422 732 17
814 1328 9
617 1552 51
601 850 19
557 1355 3
225 233 44
610 1599 2
196 681 93
344 867 87
315 818 48
201 659 18
581 1377 98
282 871 98
10 167 72
623 1161 92
39 218 90
658 1616 91
816 1704 56
512 714 34
273 328 28
647 1009 86
876 1309 69
143 987 16
882 1880 22
652 673 99
558 1034 92
390 465 12
601 1111 3
870 1731 88
402 1191 55
424 426 85
183 468 88
427 1044 57
833 1765 69
155 876 89
